^C:\USERS\ALEXL\ONEDRIVE\DOCUMENTS\VISUAL STUDIO 2015\PROJECTS\M05\M05\SOURCE.CPP
C:\USERS\ALEXL\ONEDRIVE\DOCUMENTS\VISUAL STUDIO 2015\PROJECTS\M05\M05\DEBUG\VC140.PDB
C:\USERS\ALEXL\ONEDRIVE\DOCUMENTS\VISUAL STUDIO 2015\PROJECTS\M05\M05\DEBUG\VC140.IDB
C:\USERS\ALEXL\ONEDRIVE\DOCUMENTS\VISUAL STUDIO 2015\PROJECTS\M05\M05\DEBUG\SOURCE.OBJ
